Testbench_Example_1/Testbench_Example_1.sim/sim_1/behav/xsim/simulate.log
Vivado Simulator 2018.2
Time resolution is 1 ps
Input X = 1.00000000, Input Y = 0.61000000. Output Z = 1.63934426
Input X = 6.40000000, Input Y = 3.72000000. Output Z = 1.72043011
Input X = 16.20000000, Input Y = 9.33000000. Output Z = 1.73633441
Input X = 30.40000000, Input Y = 17.44000000. Output Z = 1.74311927
Input X = 49.00000000, Input Y = 28.05000000. Output Z = 1.74688057
Input X = 72.00000000, Input Y = 41.16000000. Output Z = 1.74927114
Input X = 99.40000000, Input Y = 56.77000000. Output Z = 1.75092478
Input X = 131.20000000, Input Y = 74.88000000. Output Z = 1.75213675
Input X = 167.40000000, Input Y = 95.49000000. Output Z = 1.75306315
Input X = 208.00000000, Input Y = 118.60000000. Output Z = 1.75379427
Input X = 253.00000000, Input Y = 144.21000000. Output Z = 1.75438596
Input X = 302.40000000, Input Y = 172.32000000. Output Z = 1.75487465
Input X = 356.20000000, Input Y = 202.93000000. Output Z = 1.75528507
Input X = 414.40000000, Input Y = 236.04000000. Output Z = 1.75563464
Input X = 477.00000000, Input Y = 271.65000000. Output Z = 1.75593595
Input X = 544.00000000, Input Y = 309.76000000. Output Z = 1.75619835
